{
  "name": "Laravel Project",
  "version": "0.1.0",
  "description": "A basic apiDoc example",
  "sampleUrl": false,
  "defaultVersion": "0.0.0",
  "apidoc": "0.3.0",
  "generator": {
    "name": "apidoc",
    "time": "2019-08-14T07:05:12.233Z",
    "url": "http://apidocjs.com",
    "version": "0.17.7"
  }
}
